useR2017
…
get_interval(one_week_of_traffic$time_stamp)

## [1] "sec"

get_interval(as.Date(c("2017-07-01", "2017-07-03", "2017-07-07")))

## [1] "2 day"

Slide 9

one_week_of_traffic %>% 
  thicken("6 hour") %>% 
  count(twp, time_stamp_6_hour)

## Source: local data frame [65 x 3]
## Groups: twp [?]
## 
##         twp   time_stamp_6_hour     n
##       <chr>              <dttm> <int>
## 1  ABINGTON 2016-07-10 06:00:00     1
## 2  ABINGTON 2016-07-10 12:00:00     6
## 3  ABINGTON 2016-07-10 18:00:00     1
## 4  ABINGTON 2016-07-11 06:00:00     1
## 5  ABINGTON 2016-07-11 12:00:00     1
## 6  ABINGTON 2016-07-11 18:00:00     3
## 7  ABINGTON 2016-07-12 06:00:00     1
## 8  ABINGTON 2016-07-12 12:00:00     1
## 9  ABINGTON 2016-07-13 06:00:00     3
## 10 ABINGTON 2016-07-13 12:00:00     8
## # ... with 55 more rows

Slide 11

one_week_of_traffic %>% 
  thicken("6 hour") %>% 
  count(twp, time_stamp_6_hour) %>%
  pad()

## pad applied on the interval: 6 hour

## Source: local data frame [102 x 3]
## Groups: twp [4]
## 
##         twp   time_stamp_6_hour     n
##       <chr>              <dttm> <int>
## 1  ABINGTON 2016-07-10 06:00:00     1
## 2  ABINGTON 2016-07-10 12:00:00     6
## 3  ABINGTON 2016-07-10 18:00:00     1
## 4  ABINGTON 2016-07-11 00:00:00    NA
## 5  ABINGTON 2016-07-11 06:00:00     1
## 6  ABINGTON 2016-07-11 12:00:00     1
## 7  ABINGTON 2016-07-11 18:00:00     3
## 8  ABINGTON 2016-07-12 00:00:00    NA
## 9  ABINGTON 2016-07-12 06:00:00     1
## 10 ABINGTON 2016-07-12 12:00:00     1
## # ... with 92 more rows

Slide 13

one_week_of_traffic %>% 
  thicken("6 hour") %>% 
  count(twp, time_stamp_6_hour) %>%
  pad() %>% 
  fill_by_value()

## pad applied on the interval: 6 hour

## Source: local data frame [102 x 3]
## Groups: twp [4]
## 
##         twp   time_stamp_6_hour     n
##       <chr>              <dttm> <dbl>
## 1  ABINGTON 2016-07-10 06:00:00     1
## 2  ABINGTON 2016-07-10 12:00:00     6
## 3  ABINGTON 2016-07-10 18:00:00     1
## 4  ABINGTON 2016-07-11 00:00:00     0
## 5  ABINGTON 2016-07-11 06:00:00     1
## 6  ABINGTON 2016-07-11 12:00:00     1
## 7  ABINGTON 2016-07-11 18:00:00     3
## 8  ABINGTON 2016-07-12 00:00:00     0
## 9  ABINGTON 2016-07-12 06:00:00     1
## 10 ABINGTON 2016-07-12 12:00:00     1
## # ... with 92 more rows
…
